<?xml version="1.0" encoding="UTF-8" standalone="no"?>
<svg
   xmlns:dc="http://purl.org/dc/elements/1.1/"
   xmlns:cc="http://creativecommons.org/ns#"
   xmlns:rdf="http://www.w3.org/1999/02/22-rdf-syntax-ns#"
   xmlns:svg="http://www.w3.org/2000/svg"
   xmlns="http://www.w3.org/2000/svg"
   xmlns:sodipodi="http://sodipodi.sourceforge.net/DTD/sodipodi-0.dtd"
   xmlns:inkscape="http://www.inkscape.org/namespaces/inkscape"
   version="1.1"
   viewBox="0 0 918.15533 434.80826"
   stroke-miterlimit="10"
   id="svg4241"
   sodipodi:docname="preproduction_release_roadmap.svg"
   inkscape:version="0.92.4 5da689c313, 2019-01-14"
   width="918.15533"
   height="434.80826"
   style="fill:none;stroke:none;stroke-linecap:square;stroke-miterlimit:10">
  <metadata
     id="metadata4247">
    <rdf:RDF>
      <cc:Work
         rdf:about="">
        <dc:format>image/svg+xml</dc:format>
        <dc:type
           rdf:resource="http://purl.org/dc/dcmitype/StillImage" />
        <dc:title />
      </cc:Work>
    </rdf:RDF>
  </metadata>
  <defs
     id="defs4245" />
  <sodipodi:namedview
     pagecolor="#ffffff"
     bordercolor="#666666"
     borderopacity="1"
     objecttolerance="10"
     gridtolerance="10"
     guidetolerance="10"
     inkscape:pageopacity="0"
     inkscape:pageshadow="2"
     inkscape:window-width="3840"
     inkscape:window-height="2018"
     id="namedview4243"
     showgrid="true"
     inkscape:snap-to-guides="true"
     inkscape:snap-grids="false"
     inkscape:zoom="1.4628272"
     inkscape:cx="289.15573"
     inkscape:cy="242.49236"
     inkscape:window-x="0"
     inkscape:window-y="68"
     inkscape:window-maximized="1"
     inkscape:current-layer="svg4241"
     inkscape:lockguides="false"
     inkscape:measure-start="273.057,285.233"
     inkscape:measure-end="824.842,285.233">
    <inkscape:grid
       type="xygrid"
       id="grid4367"
       originx="-66.772444"
       originy="-64.766724" />
  </sodipodi:namedview>
  <clipPath
     id="g3da239b7c3_0_49.0">
    <path
       d="M 0,0 H 960 V 540 H 0 Z"
       id="path4000"
       inkscape:connector-curvature="0"
       style="clip-rule:nonzero" />
  </clipPath>
  <path
     style="fill:#000000;fill-opacity:0;fill-rule:evenodd"
     inkscape:connector-curvature="0"
     id="path4089"
     d="M 67.715746,292.88996 H 882.73944" />
  <path
     style="fill-rule:evenodd;stroke:#611bb8;stroke-width:3;stroke-linecap:butt;stroke-linejoin:round;stroke-miterlimit:10;stroke-dasharray:none"
     inkscape:connector-curvature="0"
     id="path4091"
     d="M 88.227553,292.88996 343.15084,292.36237"
     sodipodi:nodetypes="cc" />
  <g
     id="g4700"
     transform="translate(-46.772444,-40.425009)">
    <path
       d="m 144.85301,322.91995 v 12.78738"
       id="path4093"
       inkscape:connector-curvature="0"
       style="fill:#000000;fill-opacity:0;fill-rule:evenodd" />
    <path
       d="m 140,320 v 14"
       id="path4095"
       inkscape:connector-curvature="0"
       style="fill-rule:evenodd;stroke:#611bb8;stroke-width:3.13902307;stroke-linecap:butt;stroke-linejoin:round" />
    <text
       transform="rotate(90)"
       id="text4390"
       y="-134.03516"
       x="340.25006"
       style="font-style:normal;font-weight:normal;font-size:16px;line-height:1.25;font-family:sans-serif;letter-spacing:0px;word-spacing:0px;fill:#000000;fill-opacity:1;stroke:none"
       xml:space="preserve"><tspan
         y="-134.03516"
         x="340.25006"
         id="tspan4388"
         sodipodi:role="line">21dev0</tspan></text>
  </g>
  <g
     id="g4694"
     transform="translate(-46.759657,-40.425009)">
    <path
       d="m 190,320 v 14"
       id="path4099"
       inkscape:connector-curvature="0"
       style="fill-rule:evenodd;stroke:#611bb8;stroke-width:3.13902307;stroke-linecap:butt;stroke-linejoin:round" />
    <text
       transform="rotate(90)"
       id="text4394"
       y="-184.03516"
       x="340.25006"
       style="font-style:normal;font-weight:normal;font-size:16px;line-height:1.25;font-family:sans-serif;letter-spacing:0px;word-spacing:0px;fill:#000000;fill-opacity:1;stroke:none"
       xml:space="preserve"><tspan
         y="-184.03516"
         x="340.25006"
         id="tspan4392"
         sodipodi:role="line">21dev1</tspan></text>
  </g>
  <g
     id="g4689"
     transform="translate(-47.74687,-40.425009)">
    <path
       d="m 241,320 v 14"
       id="path4103"
       inkscape:connector-curvature="0"
       style="fill-rule:evenodd;stroke:#611bb8;stroke-width:3.13902307;stroke-linecap:butt;stroke-linejoin:round" />
    <text
       transform="rotate(90)"
       id="text4398"
       y="-235.03516"
       x="340.25006"
       style="font-style:normal;font-weight:normal;font-size:16px;line-height:1.25;font-family:sans-serif;letter-spacing:0px;word-spacing:0px;fill:#000000;fill-opacity:1;stroke:none"
       xml:space="preserve"><tspan
         id="tspan4400"
         y="-235.03516"
         x="340.25006"
         sodipodi:role="line">21dev2</tspan></text>
  </g>
  <g
     id="g4674"
     transform="translate(-46.734114,-40.425009)">
    <path
       d="m 290,320 v 12.78738"
       id="path4107"
       inkscape:connector-curvature="0"
       style="fill-rule:evenodd;stroke:#611bb8;stroke-width:3;stroke-linecap:butt;stroke-linejoin:round" />
    <text
       transform="rotate(90)"
       id="text4406"
       y="-284.03516"
       x="340.25006"
       style="font-style:normal;font-weight:normal;font-size:16px;line-height:1.25;font-family:sans-serif;letter-spacing:0px;word-spacing:0px;fill:#000000;fill-opacity:1;stroke:none"
       xml:space="preserve"><tspan
         y="-284.03516"
         x="340.25006"
         id="tspan4404"
         sodipodi:role="line">21dev3</tspan></text>
  </g>
  <g
     id="g4669"
     transform="translate(-45.170515,-40.425009)">
    <path
       d="m 340,320 v 12.78738"
       id="path4111"
       inkscape:connector-curvature="0"
       style="fill-rule:evenodd;stroke:#611bb8;stroke-width:3;stroke-linecap:butt;stroke-linejoin:round" />
    <text
       transform="rotate(90)"
       id="text4410"
       y="-335.58594"
       x="340.25006"
       style="font-style:normal;font-weight:normal;font-size:16px;line-height:1.25;font-family:sans-serif;letter-spacing:0px;word-spacing:0px;fill:#000000;fill-opacity:1;stroke:none"
       xml:space="preserve"><tspan
         y="-335.58594"
         x="340.25006"
         id="tspan4408"
         sodipodi:role="line">21pre</tspan></text>
  </g>
  <path
     style="fill-rule:evenodd;stroke:#000000;stroke-width:3;stroke-linecap:butt;stroke-linejoin:round;stroke-miterlimit:10;stroke-dasharray:none;stroke-opacity:1"
     inkscape:connector-curvature="0"
     id="path4115"
     d="m 343.15084,279.57499 v 12.78738" />
  <text
     xml:space="preserve"
     style="font-style:normal;font-weight:normal;font-size:16px;line-height:1.25;font-family:sans-serif;letter-spacing:0px;word-spacing:0px;fill:#000000;fill-opacity:1;stroke:none"
     x="299.82504"
     y="-337.32663"
     id="text4414"
     transform="rotate(90)"><tspan
       sodipodi:role="line"
       id="tspan4412"
       x="299.82504"
       y="-337.32663">21.0</tspan></text>
  <path
     style="fill-rule:evenodd;stroke:#000000;stroke-width:3;stroke-linecap:butt;stroke-linejoin:round;stroke-miterlimit:10;stroke-dasharray:none;stroke-opacity:1"
     inkscape:connector-curvature="0"
     id="path4119"
     d="m 393.16362,279.57499 v 12.78738" />
  <text
     xml:space="preserve"
     style="font-style:normal;font-weight:normal;font-size:16px;line-height:1.25;font-family:sans-serif;letter-spacing:0px;word-spacing:0px;fill:#000000;fill-opacity:1;stroke:none"
     x="299.82504"
     y="-387.33942"
     id="text4418"
     transform="rotate(90)"><tspan
       sodipodi:role="line"
       id="tspan4416"
       x="299.82504"
       y="-387.33942">21.1</tspan></text>
  <path
     style="fill-rule:evenodd;stroke:#000000;stroke-width:3;stroke-linecap:butt;stroke-linejoin:round;stroke-miterlimit:10;stroke-dasharray:none;stroke-opacity:1"
     inkscape:connector-curvature="0"
     id="path4123"
     d="m 443.17641,279.57499 v 12.78738" />
  <text
     xml:space="preserve"
     style="font-style:normal;font-weight:normal;font-size:16px;line-height:1.25;font-family:sans-serif;letter-spacing:0px;word-spacing:0px;fill:#000000;fill-opacity:1;stroke:none"
     x="299.82504"
     y="-437.3522"
     id="text4422"
     transform="rotate(90)"><tspan
       sodipodi:role="line"
       id="tspan4420"
       x="299.82504"
       y="-437.3522">21.2</tspan></text>
  <path
     style="fill-rule:evenodd;stroke:#000000;stroke-width:3;stroke-linecap:butt;stroke-linejoin:round;stroke-miterlimit:10;stroke-dasharray:none;stroke-opacity:1"
     inkscape:connector-curvature="0"
     id="path4127"
     d="m 493.18923,279.57499 v 12.78738" />
  <text
     xml:space="preserve"
     style="font-style:normal;font-weight:normal;font-size:16px;line-height:1.25;font-family:sans-serif;letter-spacing:0px;word-spacing:0px;fill:#000000;fill-opacity:1;stroke:none"
     x="299.82504"
     y="-487.36502"
     id="text4426"
     transform="rotate(90)"><tspan
       sodipodi:role="line"
       id="tspan4424"
       x="299.82504"
       y="-487.36502">21.3</tspan></text>
  <path
     style="fill:#000000;fill-opacity:0;fill-rule:evenodd;stroke:#000000;stroke-width:3;stroke-miterlimit:10;stroke-dasharray:none;stroke-opacity:1"
     inkscape:connector-curvature="0"
     id="path4117"
     d="m 541.43294,282.49494 v 12.78738" />
  <path
     style="fill-rule:evenodd;stroke:#000000;stroke-width:3;stroke-linecap:butt;stroke-linejoin:round;stroke-miterlimit:10;stroke-dasharray:none;stroke-opacity:1"
     inkscape:connector-curvature="0"
     id="path4131"
     d="m 543.20198,279.57499 v 12.78738" />
  <text
     xml:space="preserve"
     style="font-style:normal;font-weight:normal;font-size:16px;line-height:1.25;font-family:sans-serif;letter-spacing:0px;word-spacing:0px;fill:#000000;fill-opacity:1;stroke:none"
     x="299.82504"
     y="-537.37775"
     id="text4430"
     transform="rotate(90)"><tspan
       sodipodi:role="line"
       id="tspan4428"
       x="299.82504"
       y="-537.37775">21.4</tspan></text>
  <path
     style="fill-rule:evenodd;stroke:#000000;stroke-width:3;stroke-linecap:butt;stroke-linejoin:round;stroke-miterlimit:10;stroke-dasharray:none;stroke-opacity:1"
     inkscape:connector-curvature="0"
     id="path4135"
     d="m 593.21474,279.57499 v 12.78738" />
  <text
     xml:space="preserve"
     style="font-style:normal;font-weight:normal;font-size:16px;line-height:1.25;font-family:sans-serif;letter-spacing:0px;word-spacing:0px;fill:#000000;fill-opacity:1;stroke:none"
     x="299.82504"
     y="-587.3905"
     id="text4434"
     transform="rotate(90)"><tspan
       sodipodi:role="line"
       id="tspan4432"
       x="299.82504"
       y="-587.3905">21.5</tspan></text>
  <text
     xml:space="preserve"
     style="font-style:normal;font-weight:normal;font-size:16px;line-height:1.25;font-family:sans-serif;letter-spacing:0px;word-spacing:0px;fill:#000000;fill-opacity:1;stroke:none"
     x="299.82504"
     y="-637.40332"
     id="text4438"
     transform="rotate(90)"><tspan
       sodipodi:role="line"
       id="tspan4436"
       x="299.82504"
       y="-637.40332">21.6</tspan></text>
  <path
     style="fill-rule:evenodd;stroke:#000000;stroke-width:3;stroke-linecap:butt;stroke-linejoin:round;stroke-miterlimit:10;stroke-dasharray:none;stroke-opacity:1"
     inkscape:connector-curvature="0"
     id="path4135-6"
     d="m 643.22756,279.57499 v 12.78738" />
  <text
     xml:space="preserve"
     style="font-style:normal;font-weight:normal;font-size:18.66666603px;line-height:1.25;font-family:sans-serif;letter-spacing:0px;word-spacing:0px;fill:#000000;fill-opacity:1;stroke:none"
     x="19.854166"
     y="288.18228"
     id="text4472"><tspan
       sodipodi:role="line"
       id="tspan4470"
       x="19.854166"
       y="288.18228">Apertis</tspan><tspan
       sodipodi:role="line"
       x="19.854166"
       y="311.51562"
       id="tspan4474">2021</tspan></text>
  <text
     xml:space="preserve"
     style="font-style:normal;font-weight:normal;font-size:13.33333302px;line-height:1.25;font-family:sans-serif;letter-spacing:0px;word-spacing:0px;fill:#000000;fill-opacity:1;stroke:none"
     x="323.31036"
     y="407.64749"
     id="text4478"><tspan
       sodipodi:role="line"
       id="tspan4476"
       x="323.31036"
       y="407.64749">'21Q1</tspan></text>
  <text
     xml:space="preserve"
     style="font-style:normal;font-weight:normal;font-size:13.33333302px;line-height:1.25;font-family:sans-serif;letter-spacing:0px;word-spacing:0px;fill:#000000;fill-opacity:1;stroke:none"
     x="373.37521"
     y="427.54922"
     id="text4482"><tspan
       sodipodi:role="line"
       id="tspan4480"
       x="373.37521"
       y="427.54922">'21Q2</tspan></text>
  <text
     xml:space="preserve"
     style="font-style:normal;font-weight:normal;font-size:13.33333302px;line-height:1.25;font-family:sans-serif;letter-spacing:0px;word-spacing:0px;fill:#000000;fill-opacity:1;stroke:none"
     x="423.25455"
     y="407.64749"
     id="text4486"><tspan
       sodipodi:role="line"
       id="tspan4484"
       x="423.25455"
       y="407.64749">'21Q3</tspan></text>
  <text
     xml:space="preserve"
     style="font-style:normal;font-weight:normal;font-size:13.33333302px;line-height:1.25;font-family:sans-serif;letter-spacing:0px;word-spacing:0px;fill:#000000;fill-opacity:1;stroke:none"
     x="473.10788"
     y="427.54922"
     id="text4490"><tspan
       sodipodi:role="line"
       id="tspan4488"
       x="473.10788"
       y="427.54922">'21Q4</tspan></text>
  <text
     xml:space="preserve"
     style="font-style:normal;font-weight:normal;font-size:13.33333302px;line-height:1.25;font-family:sans-serif;letter-spacing:0px;word-spacing:0px;fill:#000000;fill-opacity:1;stroke:none"
     x="123.39985"
     y="407.64749"
     id="text4494"><tspan
       sodipodi:role="line"
       id="tspan4492"
       x="123.39985"
       y="407.64749">'20Q1</tspan></text>
  <text
     xml:space="preserve"
     style="font-style:normal;font-weight:normal;font-size:13.33333302px;line-height:1.25;font-family:sans-serif;letter-spacing:0px;word-spacing:0px;fill:#000000;fill-opacity:1;stroke:none"
     x="173.46472"
     y="427.54922"
     id="text4498"><tspan
       sodipodi:role="line"
       id="tspan4496"
       x="173.46472"
       y="427.54922">'20Q2</tspan></text>
  <text
     xml:space="preserve"
     style="font-style:normal;font-weight:normal;font-size:13.33333302px;line-height:1.25;font-family:sans-serif;letter-spacing:0px;word-spacing:0px;fill:#000000;fill-opacity:1;stroke:none"
     x="223.34401"
     y="407.64749"
     id="text4502"><tspan
       sodipodi:role="line"
       id="tspan4500"
       x="223.34401"
       y="407.64749">'20Q3</tspan></text>
  <text
     xml:space="preserve"
     style="font-style:normal;font-weight:normal;font-size:13.33333302px;line-height:1.25;font-family:sans-serif;letter-spacing:0px;word-spacing:0px;fill:#000000;fill-opacity:1;stroke:none"
     x="274.74811"
     y="427.54922"
     id="text4506"><tspan
       sodipodi:role="line"
       id="tspan4504"
       x="274.74811"
       y="427.54922">'20Q4</tspan></text>
  <text
     xml:space="preserve"
     style="font-style:normal;font-weight:normal;font-size:13.33333302px;line-height:1.25;font-family:sans-serif;letter-spacing:0px;word-spacing:0px;fill:#000000;fill-opacity:1;stroke:none"
     x="523.36145"
     y="407.64749"
     id="text4510"><tspan
       sodipodi:role="line"
       id="tspan4508"
       x="523.36145"
       y="407.64749">'22Q1</tspan></text>
  <text
     xml:space="preserve"
     style="font-style:normal;font-weight:normal;font-size:13.33333302px;line-height:1.25;font-family:sans-serif;letter-spacing:0px;word-spacing:0px;fill:#000000;fill-opacity:1;stroke:none"
     x="573.42633"
     y="427.54922"
     id="text4514"><tspan
       sodipodi:role="line"
       id="tspan4512"
       x="573.42633"
       y="427.54922">'22Q2</tspan></text>
  <text
     xml:space="preserve"
     style="font-style:normal;font-weight:normal;font-size:40px;line-height:1.25;font-family:sans-serif;letter-spacing:0px;word-spacing:0px;fill:#000000;fill-opacity:1;stroke:none"
     x="1033.2275"
     y="-20.425009"
     id="text4518"><tspan
       sodipodi:role="line"
       id="tspan4516"
       x="1033.2275"
       y="14.965616" /></text>
  <text
     xml:space="preserve"
     style="font-style:normal;font-weight:normal;font-size:13.33333302px;line-height:1.25;font-family:sans-serif;letter-spacing:0px;word-spacing:0px;fill:#000000;fill-opacity:1;stroke:none"
     x="623.30566"
     y="407.64749"
     id="text4514-5"><tspan
       sodipodi:role="line"
       id="tspan4512-3"
       x="623.30566"
       y="407.64749">'22Q3</tspan></text>
  <text
     xml:space="preserve"
     style="font-style:normal;font-weight:normal;font-size:13.33333302px;line-height:1.25;font-family:sans-serif;letter-spacing:0px;word-spacing:0px;fill:#000000;fill-opacity:1;stroke:none"
     x="73.146172"
     y="427.54922"
     id="text4494-5"><tspan
       sodipodi:role="line"
       id="tspan4492-6"
       x="73.146172"
       y="427.54922">'19Q4</tspan></text>
  <g
     transform="translate(154.84239,-230.38132)"
     id="g4700-2">
    <path
       d="m 144.85301,322.91995 v 12.78738"
       id="path4093-9"
       inkscape:connector-curvature="0"
       style="fill:#000000;fill-opacity:0;fill-rule:evenodd" />
    <path
       d="m 140,320 v 14"
       id="path4095-1"
       inkscape:connector-curvature="0"
       style="fill-rule:evenodd;stroke:#611bb8;stroke-width:3.13902307;stroke-linecap:butt;stroke-linejoin:round" />
    <text
       transform="rotate(90)"
       id="text4390-2"
       y="-134.03516"
       x="340.25006"
       style="font-style:normal;font-weight:normal;font-size:16px;line-height:1.25;font-family:sans-serif;letter-spacing:0px;word-spacing:0px;fill:#000000;fill-opacity:1;stroke:none"
       xml:space="preserve"><tspan
         y="-134.03516"
         x="340.25006"
         id="tspan4388-7"
         sodipodi:role="line">22dev0</tspan></text>
  </g>
  <g
     id="g4694-0"
     transform="translate(154.85518,-230.38132)">
    <path
       d="m 190,320 v 14"
       id="path4099-9"
       inkscape:connector-curvature="0"
       style="fill-rule:evenodd;stroke:#611bb8;stroke-width:3.13902307;stroke-linecap:butt;stroke-linejoin:round" />
    <text
       transform="rotate(90)"
       id="text4394-3"
       y="-184.03516"
       x="340.25006"
       style="font-style:normal;font-weight:normal;font-size:16px;line-height:1.25;font-family:sans-serif;letter-spacing:0px;word-spacing:0px;fill:#000000;fill-opacity:1;stroke:none"
       xml:space="preserve"><tspan
         y="-184.03516"
         x="340.25006"
         id="tspan4392-6"
         sodipodi:role="line">22dev1</tspan></text>
  </g>
  <g
     id="g4689-0"
     transform="translate(153.86796,-230.38132)">
    <path
       d="m 241,320 v 14"
       id="path4103-6"
       inkscape:connector-curvature="0"
       style="fill-rule:evenodd;stroke:#611bb8;stroke-width:3.13902307;stroke-linecap:butt;stroke-linejoin:round" />
    <text
       transform="rotate(90)"
       id="text4398-2"
       y="-235.03516"
       x="340.25006"
       style="font-style:normal;font-weight:normal;font-size:16px;line-height:1.25;font-family:sans-serif;letter-spacing:0px;word-spacing:0px;fill:#000000;fill-opacity:1;stroke:none"
       xml:space="preserve"><tspan
         id="tspan4400-6"
         y="-235.03516"
         x="340.25006"
         sodipodi:role="line">22dev2</tspan></text>
  </g>
  <g
     id="g4674-1"
     transform="translate(154.88072,-230.38132)">
    <path
       d="m 290,320 v 12.78738"
       id="path4107-8"
       inkscape:connector-curvature="0"
       style="fill-rule:evenodd;stroke:#611bb8;stroke-width:3;stroke-linecap:butt;stroke-linejoin:round" />
    <text
       transform="rotate(90)"
       id="text4406-7"
       y="-284.03516"
       x="340.25006"
       style="font-style:normal;font-weight:normal;font-size:16px;line-height:1.25;font-family:sans-serif;letter-spacing:0px;word-spacing:0px;fill:#000000;fill-opacity:1;stroke:none"
       xml:space="preserve"><tspan
         y="-284.03516"
         x="340.25006"
         id="tspan4404-9"
         sodipodi:role="line">22dev3</tspan></text>
  </g>
  <g
     id="g4669-2"
     transform="translate(156.44432,-230.38132)">
    <path
       d="m 340,320 v 12.78738"
       id="path4111-0"
       inkscape:connector-curvature="0"
       style="fill-rule:evenodd;stroke:#611bb8;stroke-width:3;stroke-linecap:butt;stroke-linejoin:round" />
    <text
       transform="rotate(90)"
       id="text4410-2"
       y="-335.58594"
       x="340.25006"
       style="font-style:normal;font-weight:normal;font-size:16px;line-height:1.25;font-family:sans-serif;letter-spacing:0px;word-spacing:0px;fill:#000000;fill-opacity:1;stroke:none"
       xml:space="preserve"><tspan
         y="-335.58594"
         x="340.25006"
         id="tspan4408-3"
         sodipodi:role="line">22pre</tspan></text>
  </g>
  <path
     style="fill-rule:evenodd;stroke:#000000;stroke-width:3;stroke-linecap:butt;stroke-linejoin:round;stroke-miterlimit:10;stroke-dasharray:none;stroke-opacity:1"
     inkscape:connector-curvature="0"
     id="path4115-5"
     d="M 544.76567,89.618676 V 102.40606" />
  <text
     xml:space="preserve"
     style="font-style:normal;font-weight:normal;font-size:16px;line-height:1.25;font-family:sans-serif;letter-spacing:0px;word-spacing:0px;fill:#000000;fill-opacity:1;stroke:none"
     x="109.86874"
     y="-538.94147"
     id="text4414-9"
     transform="rotate(90)"><tspan
       sodipodi:role="line"
       id="tspan4412-2"
       x="109.86874"
       y="-538.94147">22.0</tspan></text>
  <path
     style="fill-rule:evenodd;stroke:#000000;stroke-width:3;stroke-linecap:butt;stroke-linejoin:round;stroke-miterlimit:10;stroke-dasharray:none;stroke-opacity:1"
     inkscape:connector-curvature="0"
     id="path4119-8"
     d="M 594.77846,89.618676 V 102.40606" />
  <text
     xml:space="preserve"
     style="font-style:normal;font-weight:normal;font-size:16px;line-height:1.25;font-family:sans-serif;letter-spacing:0px;word-spacing:0px;fill:#000000;fill-opacity:1;stroke:none"
     x="109.86872"
     y="-588.95422"
     id="text4418-9"
     transform="rotate(90)"><tspan
       sodipodi:role="line"
       id="tspan4416-7"
       x="109.86872"
       y="-588.95422">22.1</tspan></text>
  <path
     style="fill-rule:evenodd;stroke:#000000;stroke-width:3;stroke-linecap:butt;stroke-linejoin:round;stroke-miterlimit:10;stroke-dasharray:none;stroke-opacity:1"
     inkscape:connector-curvature="0"
     id="path4123-6"
     d="M 644.76567,89.618676 V 102.40606" />
  <text
     xml:space="preserve"
     style="font-style:normal;font-weight:normal;font-size:16px;line-height:1.25;font-family:sans-serif;letter-spacing:0px;word-spacing:0px;fill:#000000;fill-opacity:1;stroke:none"
     x="109.86874"
     y="-638.94147"
     id="text4422-1"
     transform="rotate(90)"><tspan
       sodipodi:role="line"
       id="tspan4420-2"
       x="109.86874"
       y="-638.94147">22.2</tspan></text>
  <path
     style="fill-rule:evenodd;stroke:#000000;stroke-width:3;stroke-linecap:butt;stroke-linejoin:round;stroke-miterlimit:10;stroke-dasharray:none;stroke-opacity:1"
     inkscape:connector-curvature="0"
     id="path4127-3"
     d="M 694.80406,89.618676 V 102.40606" />
  <text
     xml:space="preserve"
     style="font-style:normal;font-weight:normal;font-size:16px;line-height:1.25;font-family:sans-serif;letter-spacing:0px;word-spacing:0px;fill:#000000;fill-opacity:1;stroke:none"
     x="109.86872"
     y="-688.97986"
     id="text4426-1"
     transform="rotate(90)"><tspan
       sodipodi:role="line"
       id="tspan4424-9"
       x="109.86872"
       y="-688.97986">22.3</tspan></text>
  <path
     style="fill:#000000;fill-opacity:0;fill-rule:evenodd;stroke:#000000;stroke-width:3;stroke-miterlimit:10;stroke-dasharray:none;stroke-opacity:1"
     inkscape:connector-curvature="0"
     id="path4117-7"
     d="M 743.04778,91.118676 V 103.90606" />
  <text
     xml:space="preserve"
     style="font-style:normal;font-weight:normal;font-size:16px;line-height:1.25;font-family:sans-serif;letter-spacing:0px;word-spacing:0px;fill:#000000;fill-opacity:1;stroke:none"
     x="109.86872"
     y="-738.99261"
     id="text4430-4"
     transform="rotate(90)"><tspan
       sodipodi:role="line"
       id="tspan4428-5"
       x="109.86872"
       y="-738.99261">22.4</tspan></text>
  <path
     style="fill-rule:evenodd;stroke:#000000;stroke-width:3;stroke-linecap:butt;stroke-linejoin:round;stroke-miterlimit:10;stroke-dasharray:none;stroke-opacity:1"
     inkscape:connector-curvature="0"
     id="path4135-3"
     d="M 794.82957,89.618676 V 102.40606" />
  <text
     xml:space="preserve"
     style="font-style:normal;font-weight:normal;font-size:16px;line-height:1.25;font-family:sans-serif;letter-spacing:0px;word-spacing:0px;fill:#000000;fill-opacity:1;stroke:none"
     x="109.86874"
     y="-789.00537"
     id="text4434-6"
     transform="rotate(90)"><tspan
       sodipodi:role="line"
       id="tspan4432-1"
       x="109.86874"
       y="-789.00537">22.5</tspan></text>
  <text
     xml:space="preserve"
     style="font-style:normal;font-weight:normal;font-size:16px;line-height:1.25;font-family:sans-serif;letter-spacing:0px;word-spacing:0px;fill:#000000;fill-opacity:1;stroke:none"
     x="109.86874"
     y="-839.01819"
     id="text4438-6"
     transform="rotate(90)"><tspan
       sodipodi:role="line"
       id="tspan4436-3"
       x="109.86874"
       y="-839.01819">22.6</tspan></text>
  <path
     style="fill-rule:evenodd;stroke:#000000;stroke-width:3;stroke-linecap:butt;stroke-linejoin:round;stroke-miterlimit:10;stroke-dasharray:none;stroke-opacity:1"
     inkscape:connector-curvature="0"
     id="path4135-6-2"
     d="M 844.84239,89.618676 V 102.40606" />
  <text
     xml:space="preserve"
     style="font-style:normal;font-weight:normal;font-size:18.66666603px;line-height:1.25;font-family:sans-serif;letter-spacing:0px;word-spacing:0px;fill:#000000;fill-opacity:1;stroke:none"
     x="222.43575"
     y="98.225975"
     id="text4472-0"><tspan
       sodipodi:role="line"
       id="tspan4470-6"
       x="222.43575"
       y="98.225975">Apertis</tspan><tspan
       sodipodi:role="line"
       x="222.43575"
       y="121.55931"
       id="tspan4474-1">2022</tspan></text>
  <text
     xml:space="preserve"
     style="font-style:normal;font-weight:normal;font-size:13.33333302px;line-height:1.25;font-family:sans-serif;letter-spacing:0px;word-spacing:0px;fill:#000000;fill-opacity:1;stroke:none"
     x="673.18457"
     y="432.51147"
     id="text4514-5-0-1"><tspan
       sodipodi:role="line"
       id="tspan4512-3-6-5"
       x="673.18457"
       y="432.51147">'22Q4</tspan></text>
  <text
     xml:space="preserve"
     style="font-style:normal;font-weight:normal;font-size:13.33333302px;line-height:1.25;font-family:sans-serif;letter-spacing:0px;word-spacing:0px;fill:#000000;fill-opacity:1;stroke:none"
     x="723.43817"
     y="407.64749"
     id="text4514-5-0-1-9"><tspan
       sodipodi:role="line"
       id="tspan4512-3-6-5-4"
       x="723.43817"
       y="407.64749">'22Q1</tspan></text>
  <text
     xml:space="preserve"
     style="font-style:normal;font-weight:normal;font-size:13.33333302px;line-height:1.25;font-family:sans-serif;letter-spacing:0px;word-spacing:0px;fill:#000000;fill-opacity:1;stroke:none"
     x="871.33191"
     y="433.08951"
     id="text4514-5-0-1-9-9"><tspan
       sodipodi:role="line"
       id="tspan4512-3-6-5-4-0"
       x="871.33191"
       y="433.08951">'22Q4</tspan></text>
  <text
     xml:space="preserve"
     style="font-style:normal;font-weight:normal;font-size:13.33333302px;line-height:1.25;font-family:sans-serif;letter-spacing:0px;word-spacing:0px;fill:#000000;fill-opacity:1;stroke:none"
     x="823.38239"
     y="407.64749"
     id="text4514-5-0-1-9-9-9"><tspan
       sodipodi:role="line"
       id="tspan4512-3-6-5-4-0-1"
       x="823.38239"
       y="407.64749">'22Q3</tspan></text>
  <path
     style="fill-rule:evenodd;stroke:#611bb8;stroke-width:3;stroke-linecap:butt;stroke-linejoin:round;stroke-miterlimit:10;stroke-dasharray:none"
     inkscape:connector-curvature="0"
     id="path4091-7"
     d="M 293.05665,102.40606 H 544.76567"
     sodipodi:nodetypes="cc" />
  <text
     xml:space="preserve"
     style="font-style:normal;font-weight:normal;font-size:13.33333302px;line-height:1.25;font-family:sans-serif;letter-spacing:0px;word-spacing:0px;fill:#000000;fill-opacity:1;stroke:none"
     x="768.72614"
     y="433.08951"
     id="text4514-5-0-1-9-9-3"><tspan
       sodipodi:role="line"
       id="tspan4512-3-6-5-4-0-6"
       x="768.72614"
       y="433.08951">'22Q2</tspan></text>
  <path
     style="fill:none;stroke:#000000;stroke-width:3;stroke-linecap:butt;stroke-linejoin:miter;stroke-miterlimit:10;stroke-dasharray:none;stroke-opacity:1"
     d="M 544.76567,102.40606 H 844.84239"
     id="path1005"
     inkscape:connector-curvature="0" />
  <path
     style="fill:none;stroke:#000000;stroke-width:3;stroke-linecap:butt;stroke-linejoin:miter;stroke-miterlimit:10;stroke-dasharray:none;stroke-opacity:1"
     d="M 343.15084,292.36237 H 643.22756"
     id="path1007"
     inkscape:connector-curvature="0" />
  <path
     style="fill:none;stroke:#000000;stroke-width:3;stroke-linecap:butt;stroke-linejoin:miter;stroke-miterlimit:10;stroke-dasharray:none;stroke-opacity:1"
     d="m 142.36579,230.40954 231.05942,-0.68361 -10e-6,-178.421616 328.81533,-2.050823"
     id="path1045"
     inkscape:connector-curvature="0"
     sodipodi:nodetypes="cccc" />
  <text
     xml:space="preserve"
     style="font-style:normal;font-weight:normal;font-size:18.66666603px;line-height:1.25;font-family:sans-serif;letter-spacing:0px;word-spacing:0px;fill:#000000;fill-opacity:1;stroke:none"
     x="8.3786669"
     y="235.8784"
     id="text1049"><tspan
       sodipodi:role="line"
       id="tspan1047"
       x="8.3786669"
       y="235.8784">PreProduction</tspan></text>
  <path
     style="fill:none;fill-rule:evenodd;stroke:#000000;stroke-width:3;stroke-linecap:butt;stroke-linejoin:round;stroke-miterlimit:10;stroke-dasharray:none;stroke-opacity:1"
     inkscape:connector-curvature="0"
     id="path4135-6-2-0"
     d="M 702.24053,36.466107 V 49.253491" />
  <text
     xml:space="preserve"
     style="font-style:normal;font-weight:normal;font-size:16px;line-height:1.25;font-family:sans-serif;letter-spacing:0px;word-spacing:0px;fill:#000000;fill-opacity:1;stroke:none"
     x="2.9052322"
     y="-699.20502"
     id="text1068"
     transform="rotate(90)"><tspan
       sodipodi:role="line"
       id="tspan1066"
       x="2.9052322"
       y="-699.20502">sop</tspan></text>
  <path
     style="fill:none;fill-rule:evenodd;stroke:#000000;stroke-width:3;stroke-linecap:butt;stroke-linejoin:round;stroke-miterlimit:10;stroke-dasharray:none;stroke-opacity:1"
     inkscape:connector-curvature="0"
     id="path4135-6-2-0-4"
     d="M 552.53043,35.340114 V 48.127498" />
  <text
     xml:space="preserve"
     style="font-style:normal;font-weight:normal;font-size:16px;line-height:1.25;font-family:sans-serif;letter-spacing:0px;word-spacing:0px;fill:#000000;fill-opacity:1;stroke:none"
     x="579.87476"
     y="38.315769"
     id="text1102"><tspan
       sodipodi:role="line"
       id="tspan1100"
       x="579.87476"
       y="38.315769">Final Freeze</tspan></text>
  <path
     style="fill:none;fill-rule:evenodd;stroke:#000000;stroke-width:3;stroke-linecap:butt;stroke-linejoin:round;stroke-miterlimit:10;stroke-dasharray:none;stroke-opacity:1"
     inkscape:connector-curvature="0"
     id="path4135-6-2-0-4-4"
     d="m 142.36579,217.62216 v 12.78738" />
  <text
     xml:space="preserve"
     style="font-style:normal;font-weight:normal;font-size:16px;line-height:1.25;font-family:sans-serif;letter-spacing:0px;word-spacing:0px;fill:#000000;fill-opacity:1;stroke:none"
     x="176.54619"
     y="220.83904"
     id="text1121"><tspan
       sodipodi:role="line"
       id="tspan1119"
       x="176.54619"
       y="220.83904">Development</tspan></text>
  <text
     xml:space="preserve"
     style="font-style:normal;font-weight:normal;font-size:16px;line-height:1.25;font-family:sans-serif;letter-spacing:0px;word-spacing:0px;fill:#000000;fill-opacity:1;stroke:none;stroke-linecap:square;stroke-miterlimit:10"
     x="378.44986"
     y="42.729828"
     id="text1121-4"><tspan
       sodipodi:role="line"
       id="tspan1119-7"
       x="378.44986"
       y="42.729828">Development</tspan></text>
</svg>
